%YAML 1.1
%TAG !u! tag:unity3d.com,2011:
--- !u!1045 &1
EditorBuildSettings:
  m_ObjectHideFlags: 0
  serializedVersion: 2
  m_Scenes:
  - enabled: 1
    path: Assets/Scenes/Menu Principal.unity
    guid: 5c3cf22071d88004aa50f431137483f5
  - enabled: 1
    path: Assets/Scenes/Level 1.unity
    guid: 2cda990e2423bbf4892e6590ba056729
  - enabled: 1
    path: Assets/Scenes/Level 2.unity
    guid: 98959c1ba17ebe54693ba862ece6a96f
  - enabled: 1
    path: Assets/Scenes/Level 3.unity
    guid: 3e071188dbc857c4d8965139942640fe
  - enabled: 1
    path: Assets/Scenes/Vitoria.unity
    guid: df35650c430fe62459d6d79c01b297e6
  - enabled: 1
    path: Assets/Scenes/Derrota.unity
    guid: 150b6f0c09b76a24785b4b367a6c2fb9
  m_configObjects: {}
